{
    "$schema": "https://github.com/jsonresume/resume-schema/raw/v1.0.0/schema.json",
    "awards": [],
    "basics": {
        "email": "",
        "image": "",
        "label": "",
        "location": {
        },
        "name": "",
        "phone": "",
        "profiles": [],
        "summary": "",
        "url": ""
    },
    "education": [],
    "interests": [],
    "languages": [],
    "meta": {
        "canonical": "",
        "lastModified": "",
        "version": ""
    },
    "projects": [],
    "publications": [],
    "references": [],
    "skills": [],
    "volunteer": [],
    "work": []
}
